{
  "Parameters": {
    "Phase": "dr",

    "DockerImage": "$DOCKER_IMAGE$",

    "ApexDNSRecordSet": "realinstitutoelcano.org",
    "WWWDNSRecordSet": "www.realinstitutoelcano.org",
    "MediaDNSRecordSet": "media.realinstitutoelcano.org",
    "BlogDNSRecordSet": "blog.realinstitutoelcano.org",
    "MediaOriginDNSRecordSet": "media-origin.realinstitutoelcano.org",

    "DBInstanceClass": "db.t3.medium",
    "DBEngineVersion": "10.6",
    "DBAllocatedStorage": "100",
    "DBMultiAZ": "false",
    "DBBackupRetentionPeriod": "7",
    "DBEnablePerformanceInsights": "false",
    "DBPerformanceInsightsRetentionPeriod": "7",

    "CacheAZMode": "single-az",
    "CacheNumNodes": "1",
    "CacheNodeType": "cache.t3.micro",

    "ECSServiceVersion": "v001",
    "AppCPU": "2048",
    "AppMemory": "8192",
    "AppMinTasks": "2",
    "AppMaxTasks": "8",
    "AppOnDemandWeight": "50",
    "AppSpotWeight": "50",

    "EnableMonitoring": "false",

    "CDNAuthHeaderName": "X-ElCano-CFN-Auth",
    "CDNAuthHeaderValue": "BddmgFkr58dnfCVhxA2wzC7vcg5At4W5ZrW26vkyCx5Acg5q7AbHH3KSuUGATJYs",

    "DBSnapshotID": "awsbackup:copyjob-d779f83b-9f65-bfb2-9150-1583bfca4b5e",
    "EFSFilesystemId": "fs-02f18352fb5ac0cc9",
    "CloudfrontDistributionID": "E277SVMUS3YYMD"
  },
  "Tags": {
    "phase": "dr",
    "app": "wordpress"
  }
}
